Experimental Design and Differential Expression Analysis
…
cont.matrix <- makeContrasts(Tissue_dif = Lung - Renal,
                               levels=design)

fit2 <- contrasts.fit(fit, cont.matrix)
fit2 <- eBayes(fit2)

DEA_results = as.data.frame(topTable(fit2,adjust.method = "BH",number = Inf)) %>% rownames_to_column(var = "Gene") %>%
               arrange(desc(abs(t))) %>% as_tibble()

limma_genes = filter(DEA_results, adj.P.Val < 0.05)[[1]]

DEA_results

## # A tibble: 12,984 x 7
##    Gene      logFC AveExpr     t      P.Value adj.P.Val     B
##    <chr>     <dbl>   <dbl> <dbl>        <dbl>     <dbl> <dbl>
##  1 APBB1IP  -2.00     4.91 -9.67 0.0000000268  0.000348  8.12
##  2 PAX8     -2.50     5.38 -7.36 0.00000115    0.00747   5.23
##  3 RALGAPA1  0.914    5.77  6.62 0.00000447    0.0194    4.11
##  4 MOXD1    -3.68     6.87 -6.02 0.0000142     0.0425    3.13
##  5 CNIH1     0.752   10.8   5.86 0.0000194     0.0425    2.87
##  6 GFRA1    -2.75     5.31 -5.85 0.0000196     0.0425    2.86
##  7 HOXA10   -3.04     6.56 -5.69 0.0000270     0.0500    2.58
##  8 PLK2     -2.39    10.1  -5.60 0.0000329     0.0500    2.41
##  9 PTPN13   -2.17     7.01 -5.47 0.0000427     0.0500    2.19
## 10 FAM49A   -2.68     4.96 -5.43 0.0000460     0.0500    2.12
## #  with 12,974 more rows
